{
	"info": {
		"_postman_id": "2ebc5609-2155-409f-88ca-5c8b827d82b6",
		"name": "portal",
		"schema": "https://schema.getpostman.com/json/collection/v2.1.0/collection.json",
		"_exporter_id": "14727203"
	},
	"item": [
		{
			"name": "Empty",
			"item": [
				{
					"name": "EmptyHeader",
					"event": [
						{
							"listen": "test",
							"script": {
								"exec": [
									"tests[\"Status code is 201\"] = responseCode.code === 201;\r",
									"\r",
									"var jsonData = JSON.parse(responseBody);\r",
									"tests[\"Response contains 'data'\"] = jsonData.hasOwnProperty(\"data\");\r",
									"var data = jsonData.data\r",
									"tests[\"Response contains 'id'\"] = data.hasOwnProperty(\"id\");\r",
									"postman.setEnvironmentVariable(\"EMPTY_HEADER_ID\", data.id);"
								],
								"type": "text/javascript"
							}
						}
					],
					"request": {
						"auth": {
							"type": "bearer",
							"bearer": [
								{
									"key": "token",
									"value": "{{TOKEN}}",
									"type": "string"
								}
							]
						},
						"method": "POST",
						"header": [],
						"body": {
							"mode": "formdata",
							"formdata": [
								{
									"key": "emptyHeader",
									"value": "{\n    \"bookingNumber\": \"ABC001\",\n    \"operationId\": 1,\n    \"line\": \"naviera\",\n    \"vesselId\": \"buque\",\n    \"destinationPort\": \"puerto\",\n    \"numberOfContainers\": 200,\n    \"clientCompanyCUIT\": \"302220005\"\n}",
									"contentType": "application/json",
									"type": "text"
								},
								{
									"key": "files",
									"type": "file",
									"src": []
								}
							]
						},
						"url": {
							"raw": "{{BASE_URL}}/portal/emptyHeader",
							"host": [
								"{{BASE_URL}}"
							],
							"path": [
								"portal",
								"emptyHeader"
							]
						}
					},
					"response": []
				},
				{
					"name": "EmptyHeaders",
					"request": {
						"auth": {
							"type": "bearer",
							"bearer": [
								{
									"key": "token",
									"value": "{{TOKEN}}",
									"type": "string"
								}
							]
						},
						"method": "GET",
						"header": [],
						"url": {
							"raw": "{{BASE_URL}}/portal/emptyHeader",
							"host": [
								"{{BASE_URL}}"
							],
							"path": [
								"portal",
								"emptyHeader"
							],
							"query": [
								{
									"key": "filter%5BoperationId%5D",
									"value": "1",
									"disabled": true
								},
								{
									"key": "filter%5BcompanyCUIT%5D",
									"value": "302220005",
									"disabled": true
								},
								{
									"key": "filter%5Bbooking%5D",
									"value": "ABC002",
									"disabled": true
								},
								{
									"key": "filter%5BvesselId%5D",
									"value": "buque",
									"disabled": true
								},
								{
									"key": "filter%5Bline%5D",
									"value": "naviera",
									"disabled": true
								}
							]
						}
					},
					"response": []
				},
				{
					"name": "EmptyHeader By Id",
					"request": {
						"auth": {
							"type": "bearer",
							"bearer": [
								{
									"key": "token",
									"value": "{{TOKEN}}",
									"type": "string"
								}
							]
						},
						"method": "GET",
						"header": [],
						"url": {
							"raw": "{{BASE_URL}}/portal/emptyHeader/{{EMPTY_HEADER_ID}}",
							"host": [
								"{{BASE_URL}}"
							],
							"path": [
								"portal",
								"emptyHeader",
								"{{EMPTY_HEADER_ID}}"
							]
						}
					},
					"response": []
				},
				{
					"name": "Add EmptyHeader files",
					"request": {
						"auth": {
							"type": "bearer",
							"bearer": [
								{
									"key": "token",
									"value": "{{TOKEN}}",
									"type": "string"
								}
							]
						},
						"method": "POST",
						"header": [],
						"body": {
							"mode": "formdata",
							"formdata": [
								{
									"key": "files",
									"type": "file",
									"src": []
								}
							]
						},
						"url": {
							"raw": "{{BASE_URL}}/portal/emptyHeader/{{EMPTY_HEADER_ID}}/attachment",
							"host": [
								"{{BASE_URL}}"
							],
							"path": [
								"portal",
								"emptyHeader",
								"{{EMPTY_HEADER_ID}}",
								"attachment"
							]
						}
					},
					"response": []
				},
				{
					"name": "EmptyHeader",
					"request": {
						"method": "DELETE",
						"header": []
					},
					"response": []
				},
				{
					"name": "EmptyBody",
					"request": {
						"auth": {
							"type": "bearer",
							"bearer": [
								{
									"key": "token",
									"value": "{{TOKEN}}",
									"type": "string"
								}
							]
						},
						"method": "POST",
						"header": [],
						"body": {
							"mode": "raw",
							"raw": "{\r\n    \"emptyHeaderId\": {{EMPTY_HEADER_ID}}\r\n}",
							"options": {
								"raw": {
									"language": "json"
								}
							}
						},
						"url": {
							"raw": "{{BASE_URL}}/portal/emptyBody",
							"host": [
								"{{BASE_URL}}"
							],
							"path": [
								"portal",
								"emptyBody"
							]
						}
					},
					"response": []
				},
				{
					"name": "EmptyBody By Id",
					"request": {
						"method": "GET",
						"header": []
					},
					"response": []
				},
				{
					"name": "EmptyBody",
					"request": {
						"method": "PUT",
						"header": []
					},
					"response": []
				},
				{
					"name": "EmptyBody",
					"request": {
						"method": "DELETE",
						"header": []
					},
					"response": []
				},
				{
					"name": "EmptyBody Turn",
					"request": {
						"method": "POST",
						"header": []
					},
					"response": []
				}
			]
		},
		{
			"name": "Orders",
			"item": [
				{
					"name": "Orders",
					"request": {
						"auth": {
							"type": "bearer",
							"bearer": [
								{
									"key": "token",
									"value": "{{TOKEN}}",
									"type": "string"
								}
							]
						},
						"method": "GET",
						"header": [],
						"url": {
							"raw": "{{BASE_URL}}/portal/order?filter%5Btype%5D=BOOKING",
							"host": [
								"{{BASE_URL}}"
							],
							"path": [
								"portal",
								"order"
							],
							"query": [
								{
									"key": "filter%5Btype%5D",
									"value": "BOOKING"
								},
								{
									"key": "filter%5Bvalue%5D",
									"value": "ABC003",
									"disabled": true
								},
								{
									"key": "filter%5Bstakeholder%5D",
									"value": "1000",
									"disabled": true
								},
								{
									"key": "filter%5Bstatus%5D",
									"value": "NOT_ASSIGNED",
									"disabled": true
								},
								{
									"key": "filter%5Bcompany%5D",
									"value": "1000",
									"disabled": true
								}
							]
						}
					},
					"response": []
				},
				{
					"name": "Set Stakeholder",
					"request": {
						"method": "PUT",
						"header": [],
						"url": {
							"raw": "{{BASE_URL}}/portal/order/:orderId/stakeholder?stakeholderId=1000",
							"host": [
								"{{BASE_URL}}"
							],
							"path": [
								"portal",
								"order",
								":orderId",
								"stakeholder"
							],
							"query": [
								{
									"key": "stakeholderId",
									"value": "1000"
								}
							],
							"variable": [
								{
									"key": "orderId",
									"value": "1002"
								}
							]
						}
					},
					"response": []
				},
				{
					"name": "Unset Stakeholder",
					"request": {
						"method": "DELETE",
						"header": [],
						"url": {
							"raw": "{{BASE_URL}}/portal/order/:orderId/stakeholder",
							"host": [
								"{{BASE_URL}}"
							],
							"path": [
								"portal",
								"order",
								":orderId",
								"stakeholder"
							],
							"variable": [
								{
									"key": "orderId",
									"value": "1002"
								}
							]
						}
					},
					"response": []
				}
			]
		},
		{
			"name": "Turns",
			"item": [
				{
					"name": "Turns",
					"request": {
						"method": "GET",
						"header": [],
						"url": {
							"raw": "{{BASE_URL}}/portal/turn/{{OPERATION_ID}}",
							"host": [
								"{{BASE_URL}}"
							],
							"path": [
								"portal",
								"turn",
								"{{OPERATION_ID}}"
							]
						}
					},
					"response": []
				},
				{
					"name": "Turn",
					"request": {
						"method": "POST",
						"header": [],
						"body": {
							"mode": "raw",
							"raw": "{\r\n    \"days\": [\"MONDAY\",\"WEDNESDAY\",\"FRIDAY\"],\r\n    \"from\": \"14:00:00\",\r\n    \"to\": \"18:00:00\",\r\n    \"slots\": 200\r\n}",
							"options": {
								"raw": {
									"language": "json"
								}
							}
						},
						"url": {
							"raw": "{{BASE_URL}}/portal/turn/{{OPERATION_ID}}",
							"host": [
								"{{BASE_URL}}"
							],
							"path": [
								"portal",
								"turn",
								"{{OPERATION_ID}}"
							]
						}
					},
					"response": []
				},
				{
					"name": "Turn",
					"request": {
						"method": "PUT",
						"header": [],
						"body": {
							"mode": "raw",
							"raw": "{\r\n    \"id\": {{TURN_ID}},\r\n    \"days\": [\"MONDAY\",\"TUESDAY\",\"WEDNESDAY\",\"THURSDAY\"],\r\n    \"from\": \"08:00:00\",\r\n    \"to\": \"19:00:00\",\r\n    \"slots\": 200\r\n}",
							"options": {
								"raw": {
									"language": "json"
								}
							}
						},
						"url": {
							"raw": "{{BASE_URL}}/portal/turn",
							"host": [
								"{{BASE_URL}}"
							],
							"path": [
								"portal",
								"turn"
							]
						}
					},
					"response": []
				},
				{
					"name": "Turn",
					"request": {
						"method": "DELETE",
						"header": [],
						"url": {
							"raw": "{{BASE_URL}}/portal/turn/{{TURN_ID}}",
							"host": [
								"{{BASE_URL}}"
							],
							"path": [
								"portal",
								"turn",
								"{{TURN_ID}}"
							]
						}
					},
					"response": []
				}
			]
		},
		{
			"name": "Reservations",
			"item": [
				{
					"name": "EmptyBody Reservation",
					"request": {
						"method": "POST",
						"header": [],
						"url": {
							"raw": "{{BASE_URL}}/portal/reservation/{{TURN_ID}}/reservationByEmptyBody?date=2022-11-30&emptyBodyId=1000",
							"host": [
								"{{BASE_URL}}"
							],
							"path": [
								"portal",
								"reservation",
								"{{TURN_ID}}",
								"reservationByEmptyBody"
							],
							"query": [
								{
									"key": "date",
									"value": "2022-11-30"
								},
								{
									"key": "emptyBodyId",
									"value": "1000"
								}
							]
						}
					},
					"response": []
				},
				{
					"name": "Empty Bodies",
					"request": {
						"method": "GET",
						"header": [],
						"url": {
							"raw": "{{BASE_URL}}/portal/reservation/empty-body?filter%5Bdate%5D=2022-11-30&filter%5Bbooking%5D=ABC001&filter%5Bcompany%5D=1000",
							"host": [
								"{{BASE_URL}}"
							],
							"path": [
								"portal",
								"reservation",
								"empty-body"
							],
							"query": [
								{
									"key": "filter%5Bdate%5D",
									"value": "2022-11-30"
								},
								{
									"key": "filter%5Bbooking%5D",
									"value": "ABC001"
								},
								{
									"key": "filter%5Bcompany%5D",
									"value": "1000"
								}
							]
						}
					},
					"response": []
				},
				{
					"name": "Full Bodies",
					"request": {
						"method": "GET",
						"header": [],
						"url": {
							"raw": "{{BASE_URL}}/portal/reservation/full-body",
							"host": [
								"{{BASE_URL}}"
							],
							"path": [
								"portal",
								"reservation",
								"full-body"
							],
							"query": [
								{
									"key": "filter%5Bdate%5D",
									"value": "2022-11-30",
									"disabled": true
								},
								{
									"key": "filter%5Bbooking%5D",
									"value": "ABC001",
									"disabled": true
								},
								{
									"key": "filter%5Bcompany%5D",
									"value": "1000",
									"disabled": true
								}
							]
						}
					},
					"response": []
				}
			]
		},
		{
			"name": "Companies",
			"item": [
				{
					"name": "ClientCompanies",
					"request": {
						"auth": {
							"type": "bearer",
							"bearer": [
								{
									"key": "token",
									"value": "{{TOKEN}}",
									"type": "string"
								}
							]
						},
						"method": "GET",
						"header": [],
						"url": {
							"raw": "{{BASE_URL}}/portal/clientCompany/",
							"host": [
								"{{BASE_URL}}"
							],
							"path": [
								"portal",
								"clientCompany",
								""
							]
						}
					},
					"response": []
				}
			]
		},
		{
			"name": "Softland",
			"item": [
				{
					"name": "Consulta CUIT",
					"request": {
						"method": "GET",
						"header": [],
						"url": {
							"raw": "{{BASE_URL}}/portal/softland/consultaCuit?cuit=321234567",
							"host": [
								"{{BASE_URL}}"
							],
							"path": [
								"portal",
								"softland",
								"consultaCuit"
							],
							"query": [
								{
									"key": "cuit",
									"value": "321234567"
								}
							]
						}
					},
					"response": []
				}
			]
		},
		{
			"name": "NAVIS",
			"item": [
				{
					"name": "NAVIS Booking",
					"request": {
						"method": "GET",
						"header": [],
						"url": {
							"raw": "{{BASE_URL}}/portal/navis/booking?booking=153IAR0475320&cuit=30629401888",
							"host": [
								"{{BASE_URL}}"
							],
							"path": [
								"portal",
								"navis",
								"booking"
							],
							"query": [
								{
									"key": "booking",
									"value": "153IAR0475320"
								},
								{
									"key": "cuit",
									"value": "30629401888"
								}
							]
						}
					},
					"response": []
				}
			]
		},
		{
			"name": "Stakeholder",
			"item": [
				{
					"name": "Stakeholders",
					"request": {
						"method": "GET",
						"header": [],
						"url": {
							"raw": "{{BASE_URL}}/portal/stakeholder/",
							"host": [
								"{{BASE_URL}}"
							],
							"path": [
								"portal",
								"stakeholder",
								""
							]
						}
					},
					"response": []
				}
			]
		},
		{
			"name": "Operations",
			"request": {
				"auth": {
					"type": "bearer",
					"bearer": [
						{
							"key": "token",
							"value": "{{TOKEN}}",
							"type": "string"
						}
					]
				},
				"method": "GET",
				"header": [],
				"url": {
					"raw": "{{BASE_URL}}/portal/operation",
					"host": [
						"{{BASE_URL}}"
					],
					"path": [
						"portal",
						"operation"
					]
				}
			},
			"response": []
		}
	],
	"auth": {
		"type": "bearer",
		"bearer": [
			{
				"key": "token",
				"value": "{{TOKEN}}",
				"type": "string"
			}
		]
	},
	"event": [
		{
			"listen": "prerequest",
			"script": {
				"type": "text/javascript",
				"exec": [
					""
				]
			}
		},
		{
			"listen": "test",
			"script": {
				"type": "text/javascript",
				"exec": [
					""
				]
			}
		}
	]
}